{
  "data": [
    {
      "from": {
        "id": "15",
        "name": "tester1"
      },
      "created_time": "2014-07-18T13:09:50+0000",
      "id": "3_2"
    },
    {
      "from": {
        "id": "15",
        "name": "tester1"
      },
      "created_time": "2014-07-18T12:09:50+0000",
      "id": "3_6"
    },
    {
      "from": {
        "id": "15",
        "name": "tester1"
      },
      "created_time": "2014-07-19T12:09:50+0000",
      "id": "3_10"
    }
  ],
  "paging": {
    "cursors": {
      "after": "NA==",
      "before": "NA=="
    },
    "next": "https://graph.facebook.com/v1.0/6344818917_10152317455558918/comments?fields=from&limit=1&after=NA=="
  }
}