{
  "data": [
    {
      "id": "20",
      "name": "tester10"
    }
  ],
  "paging": {
    "cursors": {
      "after": "NjcxMDE2MDQ2MzE4NTIy",
      "before": "MTAyMDQ0ODM5MjU3NjIwMjc="
    },
    "previous": "https://graph.facebook.com/v2.0/6344818917_10152317455558918/likes?limit=25&after=NjcxMDE2MDQ2asE4NTIy"
  }
}