[
	{
		"container": "a.mbox",
		"first_reply_period": 1,
		"message_id": "11",
		"time": "2015-06-15T00:00:00.000Z"
	}, {
		"container": "a.mbox",
		"first_reply_period": 5,
		"message_id": "12",
		"time": "2015-06-15T15:02:06.993Z"
	}, {
		"container": "b.mbox",
		"first_reply_period": 4,
		"message_id": "13",
		"time": "2015-06-15T15:02:06.994Z"
	}, {
		"container": "c.mbox",
		"first_reply_period": 10,
		"message_id": "14",
		"time": "2015-06-15T15:02:06.994Z"
	}, {
		"container": "a.mbox",
		"first_reply_period": null,
		"message_id": "20",
		"time": "2015-06-15T00:00:00.000Z"
	}, {
		"container": "a.mbox",
		"first_reply_period": 6,
		"message_id": "30",
		"time": "2015-06-19T15:02:06.996Z"
	}
]